EDAV Final Project Fall 2025
…
# plot_missing(compute_spend, , percent=FALSE)

usage_reports <- read_csv("C:/Users/micha/Downloads/ai_companies_usage_reports_clean.csv")
usage_reports

# A tibble: 27 × 16
   Id               Company `Active users` Active users time pe…¹ `Daily tokens`
   <chr>            <chr>            <dbl> <chr>                  <lgl>         
 1 ChatGPT 50M WAU  OpenAI      217410714. Monthly                NA            
 2 ChatGPT 80M WAU  OpenAI      347857143. Monthly                NA            
 3 ChatGPT 125M WAU OpenAI      543526786. Monthly                NA            
 4 100M MAU         OpenAI      100000000  Monthly                NA            
 5 350M MAU         OpenAI      350000000  Monthly                NA            
 6 ChatGPT 240M WAU OpenAI     1043571429. Monthly                NA            
 7 Meta AI 400M MAU Meta        400000000  Monthly                NA            
 8 Meta AI 185M WAU Meta        804419643. Monthly                NA            
 9 Meta AI 500M MAU Meta        500000000  Monthly                NA            
10 ChatGPT 300M WAU OpenAI     1304464286. Monthly                NA            
# ℹ 17 more rows
# ℹ abbreviated name: ¹​`Active users time period`
# ℹ 11 more variables: `Daily messages` <dbl>, Date <date>,
#   `Report date` <date>, `Source 1` <chr>, `Source 2` <chr>,
#   `Graph note` <chr>, Notes <chr>, `Source type` <chr>, Product <chr>,
#   Confidence <chr>, `Exclude from graph view` <lgl>
…
In May 2025, key OpenAI news focused on a major corporate restructuring and the announcement of a multi-billion dollar data center project, with CEO Sam Altman also testifying before the U.S. Senate. - limitations of this graph; combined into one y-axis since the dollars spent and number of users have roughly the same number of observations. it just so happens that inference costs align almost 1:1 with the number of users but this is not entirely representative of our data since the total compute costs are not accounted for. this graph will not be suitable should dollars spent outpace the number of users by a (visually) significant amount or vice versa. -

(b). Outline the trend of major releases of consumer facing products. How does this map onto the trend in compute spending shown in the previous graph?

frontier_ai_models <- read_csv("C:/Users/micha/Downloads/frontier_ai_models.csv")
frontier_ai_models

# A tibble: 131 × 96
   Model       Domain Task  Authors `Notability criteria` Notability criteria …¹
   <chr>       <chr>  <chr> <chr>   <chr>                 <chr>                 
 1 Theseus     Robot… Maze… Claude… Historical significa… <NA>                  
 2 Perceptron… Other  Bina… F Rose… Historical significa… First modern neural n…
 3 Pandemoniu… Langu… Mors… OG Sel… Highly cited,Histori… <NA>                  
 4 Samuel Neu… Games  Chec… Arthur… Highly cited,Histori… <NA>                  
 5 Perceptron… Vision Imag… Frank … Historical significa… <NA>                  
 6 ADALINE     Vision Patt… Widrow… Highly cited          <NA>                  
 7 Linear Dec… Mathe… Bina… W. Hig… Historical significa… <NA>                  
 8 Print Reco… Vision Char… L. Kam… Historical significa… <NA>                  
 9 LTE speake… Speech Spee… K. P. … Historical significa… <NA>                  
10 Neocognitr… Vision Char… K Fuku… Highly cited          <NA>                  
# ℹ 121 more rows
# ℹ abbreviated name: ¹​`Notability criteria notes`
# ℹ 90 more variables: `Model accessibility` <chr>, Link <chr>,
#   Citations <dbl>, Reference <chr>, `Publication date` <date>,
#   Organization <chr>, Parameters <dbl>, `Parameters notes` <chr>,
#   `Training compute (FLOP)` <dbl>, `Training compute notes` <chr>,
#   `Training dataset` <chr>, `Training dataset notes` <chr>, …
…
(c). Show compute spending for non-improbable GPU cluster projects in across the the private and public sector. ….. maps onto GPU cluster opening for OpenAI???.

gpu_clusters <- read_csv("C:/Users/micha/Downloads/gpu_clusters.csv")
gpu_clusters <- gpu_clusters |>
  rename(
    first_operational_date = `First Operational Date`,
    calculated_cost        = `Calculated Cost`,
    owner                  = `Owner`
  ) |>
  mutate(
    calculated_cost = as.numeric(calculated_cost)
  )
gpu_clusters

# A tibble: 786 × 55
   Name   Status Certainty `Single cluster?` `Max OP/s (log)` `H100 equivalents`
   <chr>  <chr>  <chr>     <chr>                        <dbl>              <dbl>
 1 "\"Op… Plann… Likely    Yes                           21.5           1768570.
 2 "xAI … Plann… Likely    Yes                           21.4           1389591.
 3 "Meta… Plann… Likely    Yes                           21.4           1263264.
 4 "Flui… Plann… Likely    Yes                           21.4           1263264.
 5 "Reli… Plann… Likely    Yes                           21.4           1136938.
 6 "Open… Plann… Likely    Yes                           21.2            757961.
 7 "Open… Plann… Likely    Yes                           21.1            682163.
 8 "Appl… Plann… Likely    Yes                           21.0            454775.
 9 "Proj… Plann… Likely    Yes                           20.4            134816.
10 "\"Op… Plann… Likely    Yes                           20.9            378979.
# ℹ 776 more rows
# ℹ 49 more variables: `Chip type (primary)` <chr>,
#   `Chip quantity (primary)` <dbl>, Country <chr>, owner <chr>,
#   first_operational_date <date>, Note <chr>, Sector <chr>,
#   `Power Capacity (MW)` <dbl>, `Hardware Cost` <dbl>, Location <chr>,
#   Users <chr>, `Hardware note` <chr>, Quote <chr>,
#   `First Operational Date Note` <chr>, `Certainty Note` <chr>, …
…
PCA Biplot of best performing models? and Time series

frontier_merged <- read_csv("C:/Users/micha/Downloads/frontier_merged.csv")
frontier_merged

# A tibble: 26 × 111
   Model   Domain     Task  Authors `Notability criteria` Notability criteria …¹
   <chr>   <chr>      <chr> <chr>   <chr>                 <chr>                 
 1 iGPT-XL Vision,Im… Imag… Mark C… <NA>                  <NA>                  
 2 iGPT-XL Vision,Im… Imag… Mark C… <NA>                  <NA>                  
 3 iGPT-XL Vision,Im… Imag… Mark C… <NA>                  <NA>                  
 4 iGPT-XL Vision,Im… Imag… Mark C… <NA>                  <NA>                  
 5 iGPT-XL Vision,Im… Imag… Mark C… <NA>                  <NA>                  
 6 iGPT-XL Vision,Im… Imag… Mark C… <NA>                  <NA>                  
 7 iGPT-XL Vision,Im… Imag… Mark C… <NA>                  <NA>                  
 8 iGPT-XL Vision,Im… Imag… Mark C… <NA>                  <NA>                  
 9 iGPT-XL Vision,Im… Imag… Mark C… <NA>                  <NA>                  
10 iGPT-XL Vision,Im… Imag… Mark C… <NA>                  <NA>                  
# ℹ 16 more rows
# ℹ abbreviated name: ¹​`Notability criteria notes`
# ℹ 105 more variables: `Model accessibility` <chr>, Link <chr>,
#   Citations <dbl>, Reference <chr>, `Publication date` <date>,
#   Organization_x <chr>, Parameters <dbl>, `Parameters notes` <chr>,
#   `Training compute (FLOP)_x` <dbl>, `Training compute notes_x` <chr>,
#   `Training dataset` <chr>, `Training dataset notes` <chr>, …
…
